{
    "login": "a",
    "passHash": "cc175b9c0f1b6a831c399e269772661",
    "email": "vacherep@gmail.com",
    "id": 1,
    "phone": "",
    "caloriesPerDay": 2000,
    "registrationDate": 1522138106566,
    "timezoneOffset": 25200,
    "weight": 165.0,
    "metricSystem": false,
    "gold": 2300
}
